[gd_scene load_steps=7 format=2]

[ext_resource path="res://Key/Key.gd" type="Script" id=1]
[ext_resource path="res://Behaviors/Gridable.gd" type="Script" id=2]
[ext_resource path="res://Editor/InitialGrid.gd" type="Script" id=3]
[ext_resource path="res://Key/key.obj" type="ArrayMesh" id=4]
[ext_resource path="res://texture_mat.tres" type="Material" id=5]

[sub_resource type="BoxShape" id=1]
extents = Vector3( 2.92008, 1.9571, 3.083 )

[node name="key" type="Spatial"]
transform = Transform( 1, 0, 0, 0, 1, 0, 0, 0, 1, 20.8681, 2.46548, 9.96388 )
script = ExtResource( 1 )

[node name="area" type="Area" parent="."]
editor/display_folded = true

[node name="CollisionShape" type="CollisionShape" parent="area"]
transform = Transform( 1, 0, 0, 0, 1, 0, 0, 0, 1, 0, -0.430936, 0 )
shape = SubResource( 1 )

[node name="Gridable" type="Node" parent="."]
script = ExtResource( 2 )

[node name="GridPlace" type="Node" parent="."]
script = ExtResource( 3 )

[node name="MeshInstance" type="MeshInstance" parent="."]
transform = Transform( 0.707107, 0, 0.707107, 0, 1, 0, -0.707107, 0, 0.707107, 0, 0, 0 )
mesh = ExtResource( 4 )
material/0 = ExtResource( 5 )
[connection signal="area_entered" from="area" to="." method="_on_area_area_entered"]
