[gd_scene load_steps=7 format=2]

[ext_resource path="res://Axe/Axe.obj" type="ArrayMesh" id=1]
[ext_resource path="res://texture_mat.tres" type="Material" id=2]
[ext_resource path="res://Axe/Axe.gd" type="Script" id=3]
[ext_resource path="res://Behaviors/Gridable.gd" type="Script" id=4]
[ext_resource path="res://Editor/InitialGrid.gd" type="Script" id=5]

[sub_resource type="BoxShape" id=1]
extents = Vector3( 2.92008, 1.9571, 3.083 )

[node name="weapon_pickup" type="MeshInstance"]
transform = Transform( 0.997048, 0, -0.0767832, 0, 1, 0, 0.0767832, 0, 0.997048, 9.90144, 0, 19.7931 )
mesh = ExtResource( 1 )
material/0 = ExtResource( 2 )
material/1 = ExtResource( 2 )
script = ExtResource( 3 )
durability = 2

[node name="area" type="Area" parent="."]
editor/display_folded = true
transform = Transform( 0.997048, 0, 0.0767832, 0, 1, 0, -0.0767832, 0, 0.997048, 0, 2.80011, 0 )

[node name="CollisionShape" type="CollisionShape" parent="area"]
transform = Transform( 1, 0, 0, 0, 1, 0, 0, 0, 1, 0, -0.430936, 0 )
shape = SubResource( 1 )

[node name="Gridable" type="Node" parent="."]
script = ExtResource( 4 )

[node name="GridPlace" type="Node" parent="."]
script = ExtResource( 5 )
[connection signal="area_entered" from="area" to="." method="_on_area_area_entered"]
