[gd_scene load_steps=2 format=2]

[ext_resource path="res://Sounds/Source/ludumdare_mx_loop.ogg" type="AudioStream" id=1]

[node name="BGM" type="AudioStreamPlayer"]
stream = ExtResource( 1 )
volume_db = -10.0
autoplay = true
